<?xml version="1.0" encoding="UTF-8"?>
<svg width="130px" height="130px" viewBox="0 0 130 130" version="1.1" xmlns="http://www.w3.org/2000/svg" xmlns:xlink="http://www.w3.org/1999/xlink">
    <!-- Generator: Sketch 46.2 (44496) - http://www.bohemiancoding.com/sketch -->
    <title>icon/integration</title>
    <desc>Created with Sketch.</desc>
    <defs>
        <polygon id="path-1" points="0 120 0 0 120 0 120 120"></polygon>
    </defs>
    <g id="Iconography" stroke="none" stroke-width="1" fill="none" fill-rule="evenodd">
        <g id="icon/integration">
            <g id="Page-1" transform="translate(5.000000, 5.000000)">
                <mask id="mask-2" fill="white">
                    <use xlink:href="#path-1"></use>
                </mask>
                <g id="Clip-2"></g>
                <path d="M98.9202067,76.0788235 C98.8778541,76.0788235 98.8366781,76.0729412 98.7943255,76.0729412 C97.2990461,76.0611765 95.8567073,75.8388235 94.4814267,75.4505882 C87.6061999,73.5082353 82.5486025,67.1941176 82.5486025,59.7058824 C82.5486025,52.3047059 87.488554,46.0411765 94.241429,44.0223529 C95.6108273,43.6129412 97.0555191,43.3858824 98.5484456,43.3517647 C98.6731503,43.3494118 98.795502,43.3329412 98.9202067,43.3329412 C107.948353,43.3329412 115.294164,50.6776471 115.294164,59.7058824 C115.294164,68.7341176 107.948353,76.0788235 98.9202067,76.0788235 M80.161567,91.9470588 C77.2745365,83.7470588 69.4699072,77.8423529 60.294703,77.8423529 C51.0030294,77.8423529 43.1125185,83.8917647 40.3137224,92.2517647 C35.3596533,89.2164706 31.160871,85.0682353 28.0538426,80.1623529 C36.2549387,77.2741176 42.1584102,69.4705882 42.1584102,60.2941176 C42.1584102,51.0035294 36.1090578,43.1129412 27.7479633,40.3141176 C30.7832276,35.3588235 34.9314222,31.1611765 39.8372565,28.0541176 C42.7254635,36.2541176 50.5289164,42.1576471 59.7064735,42.1576471 C68.9957942,42.1576471 76.886305,36.1082353 79.6851011,27.7470588 C84.6403467,30.7835294 88.839129,34.9317647 91.9461574,39.8376471 C83.7462378,42.7258824 77.8427662,50.5305882 77.8427662,59.7058824 C77.8427662,68.9964706 83.8921187,76.8870588 92.2520367,79.6858824 C89.2167724,84.6411765 85.0685778,88.84 80.161567,91.9470588 M60.294703,115.294118 C51.2665562,115.294118 43.9207459,107.949412 43.9207459,98.9211765 C43.9207459,98.8776471 43.9266282,98.8364706 43.9278046,98.7929412 C43.9395692,97.2988235 44.1607435,95.8564706 44.548975,94.4811765 C46.4913089,87.6070588 52.8077176,82.5482353 60.294703,82.5482353 C67.6969834,82.5482353 73.9580985,87.4894118 75.9769022,94.2435294 C76.3863099,95.6129412 76.6133665,97.0564706 76.6474838,98.5482353 C76.6498368,98.6741176 76.6663072,98.7952941 76.6663072,98.9211765 C76.6663072,107.949412 69.3228498,115.294118 60.294703,115.294118 M21.4527309,76.6482353 C21.3280262,76.6505882 21.204498,76.6670588 21.0786169,76.6670588 C12.0516466,76.6670588 4.70583622,69.3223529 4.70583622,60.2941176 C4.70583622,51.2658824 12.0516466,43.9211765 21.0786169,43.9211765 C21.1221459,43.9211765 21.1633219,43.9270588 21.2068509,43.9270588 C22.7021304,43.94 24.1432927,44.1611765 25.5173969,44.5494118 C32.3926236,46.4917647 37.452574,52.8058824 37.452574,60.2941176 C37.452574,67.6964706 32.511446,73.9588235 25.7573945,75.9776471 C24.3879962,76.3870588 22.9444809,76.6141176 21.4527309,76.6482353 M59.7064735,4.70588235 C68.7346202,4.70588235 76.0780777,12.0505882 76.0780777,21.0788235 C76.0780777,21.1223529 76.0721954,21.1635294 76.0710189,21.2058824 C76.0592543,22.7 75.83808,24.1435294 75.451025,25.5176471 C73.5086911,32.3929412 67.1946353,37.4517647 59.7064735,37.4517647 C52.3041931,37.4517647 46.0419015,32.5117647 44.0219214,25.7576471 C43.6125136,24.3882353 43.385457,22.9447059 43.3513397,21.4529412 C43.3489868,21.3270588 43.3325163,21.2047059 43.3325163,21.0788235 C43.3325163,12.0505882 50.6783267,4.70588235 59.7064735,4.70588235 M98.9202067,38.6270588 C98.0108038,38.6270588 97.1202243,38.7047059 96.2414094,38.8164706 C92.488505,32.4223529 87.0956167,27.1070588 80.6415623,23.4482353 C80.7286203,22.6694118 80.7839139,21.8811765 80.7839139,21.0788235 C80.7839139,9.45647059 71.3287125,0 59.7064735,0 C48.0818816,0 38.6266801,9.45647059 38.6266801,21.0788235 C38.6266801,21.9894118 38.70315,22.88 38.81609,23.76 C32.4232115,27.5117647 27.1079695,32.9035294 23.4491819,39.3576471 C22.670366,39.2694118 21.880962,39.2152941 21.0786169,39.2152941 C9.45637788,39.2152941 0,48.6717647 0,60.2941176 C0,71.9164706 9.45637788,81.3729412 21.0786169,81.3729412 C21.9880197,81.3729412 22.8797757,81.2952941 23.7597671,81.1823529 C27.5126714,87.5764706 32.9043833,92.8917647 39.3572612,96.5505882 C39.2702032,97.3294118 39.2149097,98.1188235 39.2149097,98.9211765 C39.2149097,110.543529 48.6701111,120 60.294703,120 C71.916942,120 81.3721434,110.543529 81.3721434,98.9211765 C81.3721434,98.0117647 81.2956736,97.1211765 81.1827335,96.2411765 C87.5767885,92.4894118 92.8920305,87.0964706 96.5508181,80.6423529 C97.329634,80.7305882 98.1178616,80.7847059 98.9202067,80.7847059 C110.544799,80.7847059 120,71.3282353 120,59.7058824 C120,48.0835294 110.544799,38.6270588 98.9202067,38.6270588" id="Fill-1" fill="#000000" mask="url(#mask-2)"></path>
            </g>
        </g>
    </g>
</svg>