<?xml version="1.0" encoding="UTF-8"?>
<svg width="130px" height="130px" viewBox="0 0 130 130" version="1.1" xmlns="http://www.w3.org/2000/svg" xmlns:xlink="http://www.w3.org/1999/xlink">
    <!-- Generator: Sketch 46.2 (44496) - http://www.bohemiancoding.com/sketch -->
    <title>icon/news-icon</title>
    <desc>Created with Sketch.</desc>
    <defs>
        <path d="M98.0103218,77.4250527 L96.914371,77.7826065 C92.7100769,79.1556976 88.2686418,79.8517638 83.7147772,79.8517638 C82.2853173,79.8517638 80.8492438,79.7766563 79.3243605,79.6211522 C77.6388637,79.4487224 76.0109989,79.1906067 74.4870604,78.8531521 C58.3935896,75.301945 47.1553699,63.0551997 47.1553699,49.0704045 C47.1553699,46.5632968 47.5210018,44.0646518 48.2399833,41.6421722 C48.702928,40.0839571 49.3340445,38.5193949 50.1153819,36.988684 C55.9258107,25.629476 69.1140671,18.2901031 83.7147772,18.2901031 C103.874603,18.2901031 120.275129,32.0971793 120.275129,49.0704045 C120.275129,56.4669013 117.108209,63.6158609 111.357302,69.2034319 L110.294419,70.2358948 L114.29086,90.348823 L98.0103218,77.4250527 Z M43.9204255,98.1970223 C39.8351744,98.1970223 35.8368435,97.6056834 32.0378623,96.4420469 L30.7359483,96.0432369 L21.0802438,106.547701 L19.6224402,89.835765 L18.8392133,89.138641 C12.9607599,83.907566 9.7239259,77.1330858 9.7239259,70.0613493 C9.7239259,54.7320251 24.7025501,42.234569 43.249628,41.9394284 C42.7120452,44.2804535 42.431444,46.6701398 42.431444,49.0704045 C42.431444,65.6130843 55.2351728,79.9935159 73.5668396,84.0408552 C67.6600427,92.4877984 56.5928291,98.1970223 43.9204255,98.1970223 L43.9204255,98.1970223 Z M124.999055,49.0704045 C124.999055,29.1817409 106.479376,13.0008463 83.7147772,13.0008463 C67.4503004,13.0008463 52.6530749,21.3843184 46.015959,34.3609812 C45.6285971,35.1205185 45.2790266,35.8895764 44.9530757,36.6639236 C44.6082291,36.6554608 44.2671616,36.6353617 43.9204255,36.6353617 C22.4596301,36.6353617 5,51.6304049 5,70.0613493 C5,78.4490529 8.5826254,86.3977481 15.1139253,92.5597323 L17.3322809,118 L32.1087212,101.923833 C35.9143159,102.961585 39.8824136,103.486279 43.9204255,103.486279 C59.1872092,103.486279 72.4019195,95.885617 78.7735507,84.8723264 C78.8151213,84.8765578 78.8538575,84.8839628 78.895428,84.8881942 C80.5421886,85.0563925 82.16344,85.1410207 83.7147772,85.1410207 C88.3187154,85.1410207 92.8253407,84.4914999 97.1269476,83.2072683 L121.567595,102.607205 L115.509633,72.1305066 C121.641289,65.6807868 124.999055,57.5480254 124.999055,49.0704045 L124.999055,49.0704045 Z" id="path-1"></path>
    </defs>
    <g id="Iconography" stroke="none" stroke-width="1" fill="none" fill-rule="evenodd">
        <g id="icon/news-icon">
            <mask id="mask-2" fill="white">
                <use xlink:href="#path-1"></use>
            </mask>
            <use id="Page-1" fill="#000000" xlink:href="#path-1"></use>
            <g id="color/black" mask="url(#mask-2)" fill="#424242">
                <rect id="Rectangle-6" x="0" y="0" width="130" height="130"></rect>
            </g>
        </g>
    </g>
</svg>